module gitlab.com/slon/shad-go

go 1.13

require (
	github.com/go-resty/resty/v2 v2.1.0
	github.com/gofrs/uuid v3.2.0+incompatible
	github.com/golang/mock v1.4.1
	github.com/spf13/cobra v0.0.5
	github.com/stretchr/testify v1.4.0
	go.uber.org/goleak v1.0.0
	golang.org/x/net v0.0.0-20190628185345-da137c7871d7
	golang.org/x/perf v0.0.0-20191209155426-36b577b0eb03
	golang.org/x/tools v0.0.0-20200125223703-d33eef8e6825
	gopkg.in/yaml.v2 v2.2.8
)
